Fecha	Jugador	Username	Saga	Raza
14-feb	PabloMayochi	Pablo Mayochi	Espada Sagrada	Caballero
14-feb	ramses	ramses	Dominios de Ra	Faraón
14-feb	IvanVikingo	IvanVikingo	Hijos de Daana	Desafiante
14-feb	JCBARBERO	JCBARBERO	Dominios de Ra	Eterno
14-feb	Bone	Bone	Hijos de Daana	Defensor
14-feb	FEDESLOWMOTION	FEDESLOWMOTION	Helénica	Olímpico
14-feb	LucasBjorn	LucasBjorn	Helénica	Titán
14-feb	nicov82	Nico Vitti	Dominios de Ra	Faraón
14-feb	Blasbourbon	Blasbourbon	Dominios de Ra	Sacerdote
14-feb	Anchoita	Anchoita	Espada Sagrada	Dragón
14-feb	Cabe	Cabe	Hijos de Daana	Sombra