round	phase	table	winner	player1	player2	player1_deck	player2_deck
1	1	1	pablomayochi	pablomayochi	donatomyl	Faraón	Titán
1	1	2	cabe	facundo16	cabe	Faerie	Héroe
1	1	3	ivanvikingo	herny	ivanvikingo	Defensor	Desafiante
1	1	4	lucasbjorn	nicobirri	lucasbjorn	Caballero	Eterno
1	1	5	jcbarbero	jcbarbero	anchoita	Sombra	Dragón
1	1	6	juanmacerrotti	fabricio89	juanmacerrotti	Faraón	Faerie
1	1	7	charly96	charly96	None	Titán	None
2	1	1	pablomayochi	lucasbjorn	pablomayochi	Eterno	Faraón
2	1	2	jcbarbero	charly96	jcbarbero	Titán	Sombra
2	1	3	ivanvikingo	cabe	ivanvikingo	Héroe	Desafiante
2	1	4	juanmacerrotti	juanmacerrotti	anchoita	Faerie	Dragón
2	1	5	donatomyl	donatomyl	facundo16	Titán	Faerie
2	1	6	nicobirri	nicobirri	fabricio89	Caballero	Faraón
2	1	7	herny	herny	None	Defensor	None
3	1	1	pablomayochi	ivanvikingo	pablomayochi	Desafiante	Faraón
3	1	2	juanmacerrotti	juanmacerrotti	jcbarbero	Faerie	Sombra
3	1	3	lucasbjorn	lucasbjorn	herny	Eterno	Defensor
3	1	4	cabe	donatomyl	cabe	Titán	Héroe
3	1	5	nicobirri	charly96	nicobirri	Titán	Caballero
3	1	6	fabricio89	fabricio89	anchoita	Faraón	Dragón
3	1	7	facundo16	facundo16	None	Faerie	None
4	1	1	pablomayochi	juanmacerrotti	pablomayochi	Faerie	Faraón
4	1	2	nicobirri	nicobirri	cabe	Caballero	Héroe
4	1	3	ivanvikingo	ivanvikingo	jcbarbero	Desafiante	Sombra
4	1	4	lucasbjorn	lucasbjorn	fabricio89	Eterno	Faraón
4	1	5	charly96	facundo16	charly96	Faerie	Titán
4	1	6	herny	herny	donatomyl	Defensor	Titán
4	1	7	anchoita	anchoita	None	Dragón	None
5	2	None	juanmacerrotti	juanmacerrotti	ivanvikingo	Faerie	Desafiante
5	2	None	ivanvikingo	lucasbjorn	ivanvikingo	Eterno	Desafiante
5	2	None	juanmacerrotti	pablomayochi	juanmacerrotti	Faraón	Faerie