round	phase	table	winner	player1	player2	player1_deck	player2_deck
1	1	1	ivanvikingo	jcbarbero	ivanvikingo	Faerie	Dragón
1	1	2	grimgordo	grimgordo	lucasbjorn	Sombra	Titán
1	1	3	cabe	cabe	agustinv	Desafiante	Caballero
1	1	4	gatti	gatti	thorvaldsson	Olímpico	Olímpico
1	1	5	fedeslowmotion	pablomayochi	fedeslowmotion	Olímpico	Faraón
1	1	6	ramses	ramses	None	Sacerdote	None
2	1	1	grimgordo	ramses	grimgordo	Sacerdote	Sombra
2	1	2	gatti	cabe	gatti	Desafiante	Olímpico
2	1	3	fedeslowmotion	fedeslowmotion	ivanvikingo	Faraón	Dragón
2	1	4	pablomayochi	jcbarbero	pablomayochi	Faerie	Olímpico
2	1	5	lucasbjorn	lucasbjorn	agustinv	Titán	Caballero
2	1	6	thorvaldsson	thorvaldsson	None	Olímpico	None
3	1	1	fedeslowmotion	fedeslowmotion	grimgordo	Faraón	Sombra
3	1	2	pablomayochi	gatti	pablomayochi	Olímpico	Olímpico
3	1	3	thorvaldsson	thorvaldsson	lucasbjorn	Olímpico	Titán
3	1	4	cabe	ramses	cabe	Sacerdote	Desafiante
3	1	5	agustinv	ivanvikingo	agustinv	Dragón	Caballero
3	1	6	jcbarbero	jcbarbero	None	Faerie	None
4	1	1	fedeslowmotion	fedeslowmotion	gatti	Faraón	Olímpico
4	1	2	grimgordo	grimgordo	pablomayochi	Sombra	Olímpico
4	1	3	thorvaldsson	cabe	thorvaldsson	Desafiante	Olímpico
4	1	4	jcbarbero	agustinv	jcbarbero	Caballero	Faerie
4	1	5	ramses	ramses	ivanvikingo	Sacerdote	Dragón
4	1	6	lucasbjorn	lucasbjorn	None	Titán	None
5	2	None	fedeslowmotion	fedeslowmotion	pablomayochi	Faraón	Olímpico
5	2	None	fedeslowmotion	fedeslowmotion	grimgordo	Faraón	Sombra
5	2	None	grimgordo	grimgordo	thorvaldsson	Sombra	Olímpico